<?xml version="1.0" encoding="UTF-8" standalone="no"?>
<!-- Created with Inkscape (http://www.inkscape.org/) -->
<svg
   xmlns:dc="http://purl.org/dc/elements/1.1/"
   xmlns:cc="http://creativecommons.org/ns#"
   xmlns:rdf="http://www.w3.org/1999/02/22-rdf-syntax-ns#"
   xmlns:svg="http://www.w3.org/2000/svg"
   xmlns="http://www.w3.org/2000/svg"
   xmlns:xlink="http://www.w3.org/1999/xlink"
   xmlns:sodipodi="http://sodipodi.sourceforge.net/DTD/sodipodi-0.dtd"
   xmlns:inkscape="http://www.inkscape.org/namespaces/inkscape"
   width="1052.3622"
   height="744.09448"
   id="svg3173"
   sodipodi:version="0.32"
   inkscape:version="0.46"
   sodipodi:docname="logo_vite1.svg"
   inkscape:output_extension="org.inkscape.output.svg.inkscape"
   version="1.0">
  <defs
     id="defs3175">
    <linearGradient
       id="linearGradient2489">
      <stop
         style="stop-color:#000000;stop-opacity:1;"
         offset="0"
         id="stop2491" />
      <stop
         style="stop-color:#ffffff;stop-opacity:0.96460176;"
         offset="1"
         id="stop2493" />
    </linearGradient>
    <linearGradient
       id="linearGradient2473">
      <stop
         style="stop-color:#000000;stop-opacity:1;"
         offset="0"
         id="stop2475" />
      <stop
         style="stop-color:#000000;stop-opacity:0;"
         offset="1"
         id="stop2477" />
    </linearGradient>
    <linearGradient
       id="linearGradient3418">
      <stop
         id="stop3420"
         offset="0"
         style="stop-color:#000000;stop-opacity:1;" />
      <stop
         style="stop-color:#b30900;stop-opacity:1;"
         offset="1"
         id="stop3422" />
      <stop
         style="stop-color:#fff000;stop-opacity:0.34210527;"
         offset="1"
         id="stop3424" />
    </linearGradient>
    <linearGradient
       id="linearGradient3410">
      <stop
         id="stop3412"
         offset="0"
         style="stop-color:#000000;stop-opacity:1;" />
      <stop
         style="stop-color:#b30900;stop-opacity:1;"
         offset="0.99999994"
         id="stop3414" />
      <stop
         style="stop-color:#fff000;stop-opacity:0.34210527;"
         offset="1"
         id="stop3416" />
    </linearGradient>
    <linearGradient
       id="linearGradient3402">
      <stop
         id="stop3404"
         offset="0"
         style="stop-color:#000000;stop-opacity:1;" />
      <stop
         style="stop-color:#b30900;stop-opacity:1;"
         offset="1"
         id="stop3406" />
      <stop
         style="stop-color:#fff000;stop-opacity:0.34210527;"
         offset="1"
         id="stop3408" />
    </linearGradient>
    <linearGradient
       id="linearGradient3341">
      <stop
         style="stop-color:#ff8000;stop-opacity:1;"
         offset="0"
         id="stop3343" />
      <stop
         id="stop3345"
         offset="0.75733697"
         style="stop-color:#ae432d;stop-opacity:0.49803922;" />
      <stop
         style="stop-color:#fff000;stop-opacity:0;"
         offset="1"
         id="stop3347" />
    </linearGradient>
    <inkscape:perspective
       sodipodi:type="inkscape:persp3d"
       inkscape:vp_x="0 : 526.18109 : 1"
       inkscape:vp_y="0 : 1000 : 0"
       inkscape:vp_z="744.09448 : 526.18109 : 1"
       inkscape:persp3d-origin="372.04724 : 350.78739 : 1"
       id="perspective3181" />
    <inkscape:perspective
       id="perspective10"
       inkscape:persp3d-origin="372.04724 : 350.78739 : 1"
       inkscape:vp_z="744.09448 : 526.18109 : 1"
       inkscape:vp_y="0 : 1000 : 0"
       inkscape:vp_x="0 : 526.18109 : 1"
       sodipodi:type="inkscape:persp3d" />
    <linearGradient
       id="linearGradient2415">
      <stop
         id="stop2417"
         offset="0"
         style="stop-color:#008000;stop-opacity:1;" />
      <stop
         style="stop-color:#0080db;stop-opacity:0.49803922;"
         offset="0"
         id="stop2423" />
      <stop
         id="stop2419"
         offset="1"
         style="stop-color:#008000;stop-opacity:0;" />
    </linearGradient>
    <linearGradient
       id="linearGradient2446">
      <stop
         id="stop2448"
         offset="0"
         style="stop-color:#008000;stop-opacity:1;" />
      <stop
         id="stop2450"
         offset="1"
         style="stop-color:#008000;stop-opacity:0;" />
    </linearGradient>
    <linearGradient
       id="linearGradient2452">
      <stop
         style="stop-color:#000000;stop-opacity:1;"
         offset="0"
         id="stop2492" />
      <stop
         id="stop3400"
         offset="1"
         style="stop-color:#b30900;stop-opacity:1;" />
      <stop
         id="stop2456"
         offset="1"
         style="stop-color:#fff000;stop-opacity:0.34210527;" />
    </linearGradient>
    <linearGradient
       inkscape:collect="always"
       xlink:href="#linearGradient2473"
       id="linearGradient2479"
       x1="218.51782"
       y1="358.86597"
       x2="299.33005"
       y2="340.68323"
       gradientUnits="userSpaceOnUse" />
    <linearGradient
       inkscape:collect="always"
       xlink:href="#linearGradient2489"
       id="linearGradient2481"
       gradientUnits="userSpaceOnUse"
       x1="243.52036"
       y1="344.58423"
       x2="412.46713"
       y2="344.58423"
       gradientTransform="translate(-28.284271,-12.121831)" />
    <linearGradient
       inkscape:collect="always"
       xlink:href="#linearGradient2489"
       id="linearGradient2483"
       gradientUnits="userSpaceOnUse"
       x1="220.28685"
       y1="330.44208"
       x2="389.23361"
       y2="330.44211"
       gradientTransform="translate(-5.0507627,2.0203051)" />
    <linearGradient
       inkscape:collect="always"
       xlink:href="#linearGradient2489"
       id="linearGradient2485"
       gradientUnits="userSpaceOnUse"
       x1="195.03304"
       y1="330.44208"
       x2="363.9798"
       y2="330.44211"
       gradientTransform="translate(20.203051,2.0203051)" />
    <linearGradient
       inkscape:collect="always"
       xlink:href="#linearGradient2489"
       id="linearGradient2487"
       gradientUnits="userSpaceOnUse"
       x1="195.07364"
       y1="346.60452"
       x2="364.02042"
       y2="346.60455"
       gradientTransform="translate(14.162445,-16.142138)" />
    <linearGradient
       inkscape:collect="always"
       xlink:href="#linearGradient2473"
       id="linearGradient2504"
       gradientUnits="userSpaceOnUse"
       x1="218.51782"
       y1="358.86597"
       x2="299.33005"
       y2="340.68323" />
    <linearGradient
       inkscape:collect="always"
       xlink:href="#linearGradient2489"
       id="linearGradient2506"
       gradientUnits="userSpaceOnUse"
       gradientTransform="translate(-74.105716,-7.9795855)"
       x1="243.52036"
       y1="344.58423"
       x2="412.46713"
       y2="344.58423" />
    <linearGradient
       inkscape:collect="always"
       xlink:href="#linearGradient2489"
       id="linearGradient2508"
       gradientUnits="userSpaceOnUse"
       gradientTransform="translate(-50.872208,6.1625506)"
       x1="220.28685"
       y1="330.44208"
       x2="389.23361"
       y2="330.44211" />
    <linearGradient
       inkscape:collect="always"
       xlink:href="#linearGradient2489"
       id="linearGradient2510"
       gradientUnits="userSpaceOnUse"
       gradientTransform="translate(-25.618394,6.1625506)"
       x1="195.03304"
       y1="330.44208"
       x2="363.9798"
       y2="330.44211" />
    <linearGradient
       inkscape:collect="always"
       xlink:href="#linearGradient2489"
       id="linearGradient2512"
       gradientUnits="userSpaceOnUse"
       gradientTransform="translate(-31.659,-11.999892)"
       x1="195.07364"
       y1="346.60452"
       x2="364.02042"
       y2="346.60455" />
  </defs>
  <sodipodi:namedview
     id="base"
     pagecolor="#ffffff"
     bordercolor="#666666"
     borderopacity="1.0"
     gridtolerance="10000"
     guidetolerance="10"
     objecttolerance="10"
     inkscape:pageopacity="0.0"
     inkscape:pageshadow="2"
     inkscape:zoom="0.7"
     inkscape:cx="342.75701"
     inkscape:cy="468.37778"
     inkscape:document-units="px"
     inkscape:current-layer="layer1"
     showgrid="false"
     inkscape:window-width="1280"
     inkscape:window-height="728"
     inkscape:window-x="0"
     inkscape:window-y="24" />
  <metadata
     id="metadata3178">
    <rdf:RDF>
      <cc:Work
         rdf:about="">
        <dc:format>image/svg+xml</dc:format>
        <dc:type
           rdf:resource="http://purl.org/dc/dcmitype/StillImage" />
      </cc:Work>
    </rdf:RDF>
  </metadata>
  <g
     inkscape:label="Layer 1"
     inkscape:groupmode="layer"
     id="layer1"
     style="display:inline">
    <g
       id="g2467"
       transform="translate(269.38585,48.847712)"
       style="fill:url(#linearGradient2479);fill-opacity:1">
      <g
         id="g3371"
         transform="matrix(0.7441402,0,0,0.6655183,89.848946,-9.0061655)"
         style="fill:url(#linearGradient2504)">
        <path
           sodipodi:nodetypes="ccccc"
           id="path3185"
           d="M 399.07985,401.37772 C 384.79413,345.66343 316.90819,281.92696 234.79414,268.52058 C 164.79414,257.09201 117.69963,253.26343 27.651287,307.09201 C 191.2227,427.092 239.07984,299.94915 386.2227,418.52058 L 399.07985,401.37772 z"
           style="fill:#333333;fill-rule:evenodd;stroke:#000000;stroke-width:1px;stroke-linecap:butt;stroke-linejoin:miter;stroke-opacity:1" />
        <path
           sodipodi:nodetypes="ccccccc"
           id="path3183"
           d="M 350.21329,418.52283 C 354.26148,421.57479 390.0751,400.76383 389.56675,401.46924 C 389.56675,401.46924 476.29191,386.82511 522.85714,405.21932 C 594.04272,444.38118 609.9033,448.78886 655.71429,525.21933 C 656.47191,536.331 649.53282,530.38564 641.68112,553.10494 C 607.3954,548.81922 570.89692,592.30902 461.42858,606.6479 C 352.85714,593.79076 437.14286,749.50503 348.57143,586.64789"
           style="fill:#000000;fill-rule:evenodd;stroke:#000000;stroke-width:1px;stroke-linecap:butt;stroke-linejoin:miter;stroke-opacity:1" />
      </g>
      <path
         sodipodi:type="arc"
         style="opacity:1;fill:#ffffff;fill-rule:nonzero;stroke:none;stroke-opacity:1"
         id="path2420"
         sodipodi:cx="584.8783"
         sodipodi:cy="170.32784"
         sodipodi:rx="26.263966"
         sodipodi:ry="8.0812206"
         d="M 611.14226,170.32784 A 26.263966,8.0812206 0 1 1 558.61433,170.32784 A 26.263966,8.0812206 0 1 1 611.14226,170.32784 z"
         transform="matrix(0.7884615,0,0,0.6875,13.133776,163.5601)" />
      <path
         sodipodi:nodetypes="ccsc"
         id="path2424"
         d="M 353.88935,270.56312 C 241.89303,203.77364 289.3173,327.19122 176.26783,341.09498 C 210.04899,287.74525 195.87274,171.97723 253.89914,183.45162 C 303.28586,193.21755 330.38635,189.09694 383.17384,259.21365"
         style="fill:#000000;fill-rule:evenodd;stroke:#000000;stroke-width:0.70373213px;stroke-linecap:butt;stroke-linejoin:miter;stroke-opacity:1" />
      <path
         sodipodi:nodetypes="ccc"
         id="path2459"
         d="M 74.970456,275.50565 L 92.143046,392.68334 L 168.91464,236.1097 L 93.904486,370.70365 L 93.904486,370.70365"
         style="fill:url(#linearGradient2506);fill-opacity:1;fill-rule:evenodd;stroke:#000000;stroke-width:1px;stroke-linecap:butt;stroke-linejoin:miter;stroke-opacity:1" />
      <path
         id="path2461"
         d="M 194.41212,391.65289 L 206.53395,337.10465 L 206.53395,337.10465 L 198.96036,393.93716 L 198.96036,392.92701"
         style="fill:url(#linearGradient2508);fill-opacity:1;fill-rule:evenodd;stroke:#000000;stroke-width:1px;stroke-linecap:butt;stroke-linejoin:miter;stroke-opacity:1" />
      <path
         id="path2463"
         d="M 264.23448,277.48535 L 370.30049,271.42443 L 305.65073,279.50565 L 276.35631,396.68335 L 297.9553,282.82038"
         style="fill:url(#linearGradient2510);fill-opacity:1;fill-rule:evenodd;stroke:#000000;stroke-width:1px;stroke-linecap:butt;stroke-linejoin:miter;stroke-opacity:1" />
      <path
         id="path2465"
         d="M 422.84874,283.50564 L 354.15837,304.71885 L 349.1076,384.5209 L 433.96042,391.59196 L 353.14821,380.48029 L 355.16852,344.11479 L 390.52386,342.09449 L 357.57462,338.39907 L 358.58477,309.10464"
         style="fill:url(#linearGradient2512);fill-opacity:1;fill-rule:evenodd;stroke:#000000;stroke-width:1px;stroke-linecap:butt;stroke-linejoin:miter;stroke-opacity:1" />
    </g>
  </g>
</svg>
