%EventDef PajeDefineContainerType 1
% Alias string 
% ContainerType string 
% Name string 
%EndEventDef 
%EventDef PajeDefineStateType 3
% Alias string 
% ContainerType string 
% Name string 
%EndEventDef 
%EventDef PajeDefineEntityValue 6
% Alias string  
% EntityType string  
% Name string  
% Color color 
%EndEventDef  
%EventDef PajeCreateContainer 7
% Time date  
% Alias string  
% Type string  
% Container string  
% Name string  
%EndEventDef  
%EventDef PajeDestroyContainer 8
% Time date  
% Name string  
% Type string  
%EndEventDef  
%EventDef PajeSetState 10
% Time date  
% Type string  
% Container string  
% Value string  
%EndEventDef 
%EventDef PajeDefineVariableType 50
% Alias string
% Name  string
% ContainerType string 
%EndEventDef 
%EventDef PajeSetVariable 51
% Time date 
% Type string 
% Container string 
% Value double 
%EndEventDef  
%EventDef PajeAddVariable 52
% Time date 
% Type string 
% Container string 
% Value double 
%EndEventDef  
%EventDef PajeSubVariable 53
% Time date 
% Type string 
% Container string 
% Value double 
%EndEventDef
1 CT_Prog   0       'Program'
1 CT_Thread CT_Prog 'Thread'
3 ST_ThreadState CT_Thread 'Thread State'
6 S_T ST_ThreadState 'Think'  '0.500000 0.500000 0.500000'
6 S_H ST_ThreadState 'Hungry' '1.000000 0.000000 0.000000'
6 S_E ST_ThreadState 'Eat'    '0.000000 0.000000 1.000000'
50 V_Sem Semaphore CT_Thread
7 0.000000 C_Prog CT_Prog 0 'Programme'
7  0.000000 C_Thread0 CT_Thread C_Prog 'Thread 0'
51 0.000000 V_Sem C_Thread0 0.0
7  0.000000 C_Thread1 CT_Thread C_Prog 'Thread 1'
51 0.000000 V_Sem C_Thread1 0.0
7  0.000000 C_Thread2 CT_Thread C_Prog 'Thread 2'
51 0.000000 V_Sem C_Thread2 0.0
7  0.000000 C_Thread3 CT_Thread C_Prog 'Thread 3'
51 0.000000 V_Sem C_Thread3 0.0
7  0.000000 C_Thread4 CT_Thread C_Prog 'Thread 4'
51 0.000000 V_Sem C_Thread4 0.0
10 2.000367 ST_ThreadState C_Thread3 S_H
10 2.000507 ST_ThreadState C_Thread3 S_E
52 2.000507 V_Sem C_Thread3 1.0
53 2.000534 V_Sem C_Thread3 1.0
10 3.000242 ST_ThreadState C_Thread1 S_H
10 3.000316 ST_ThreadState C_Thread1 S_E
52 3.000316 V_Sem C_Thread1 1.0
53 3.000336 V_Sem C_Thread1 1.0
10 4.000274 ST_ThreadState C_Thread0 S_H
10 4.000352 ST_ThreadState C_Thread2 S_H
10 5.000445 ST_ThreadState C_Thread4 S_H
10 5.000692 ST_ThreadState C_Thread3 S_T
10 5.000722 ST_ThreadState C_Thread4 S_E
52 5.000722 V_Sem C_Thread4 1.0
53 5.000788 V_Sem C_Thread4 1.0
10 7.000921 ST_ThreadState C_Thread4 S_T
10 7.001024 ST_ThreadState C_Thread3 S_H
10 7.001055 ST_ThreadState C_Thread3 S_E
52 7.001055 V_Sem C_Thread3 1.0
53 7.001077 V_Sem C_Thread3 1.0
10 9.000496 ST_ThreadState C_Thread1 S_T
10 9.000561 ST_ThreadState C_Thread0 S_E
52 9.000561 V_Sem C_Thread0 1.0
53 9.000630 V_Sem C_Thread0 1.0
10 10.001237 ST_ThreadState C_Thread3 S_T
10 10.001292 ST_ThreadState C_Thread2 S_E
52 10.001292 V_Sem C_Thread2 1.0
53 10.001364 V_Sem C_Thread2 1.0
10 12.000733 ST_ThreadState C_Thread1 S_H
10 12.001142 ST_ThreadState C_Thread4 S_H
10 12.001465 ST_ThreadState C_Thread3 S_H
10 16.000831 ST_ThreadState C_Thread0 S_T
10 16.000894 ST_ThreadState C_Thread4 S_E
52 16.000894 V_Sem C_Thread4 1.0
53 16.000939 V_Sem C_Thread4 1.0
10 16.001550 ST_ThreadState C_Thread2 S_T
10 16.001574 ST_ThreadState C_Thread1 S_E
52 16.001574 V_Sem C_Thread1 1.0
53 16.001642 V_Sem C_Thread1 1.0
10 18.001110 ST_ThreadState C_Thread4 S_T
10 18.001171 ST_ThreadState C_Thread3 S_E
52 18.001171 V_Sem C_Thread3 1.0
53 18.001243 V_Sem C_Thread3 1.0
10 20.001080 ST_ThreadState C_Thread0 S_H
10 20.001753 ST_ThreadState C_Thread2 S_H
10 21.001362 ST_ThreadState C_Thread3 S_T
10 22.001812 ST_ThreadState C_Thread1 S_T
10 22.001895 ST_ThreadState C_Thread0 S_E
52 22.001895 V_Sem C_Thread0 1.0
10 22.001927 ST_ThreadState C_Thread2 S_E
52 22.001927 V_Sem C_Thread2 1.0
53 22.001951 V_Sem C_Thread0 1.0
53 22.002000 V_Sem C_Thread2 1.0
10 23.001358 ST_ThreadState C_Thread4 S_H
10 23.001583 ST_ThreadState C_Thread3 S_H
10 25.002034 ST_ThreadState C_Thread1 S_H
10 28.002168 ST_ThreadState C_Thread2 S_T
10 28.002239 ST_ThreadState C_Thread3 S_E
52 28.002239 V_Sem C_Thread3 1.0
53 28.002312 V_Sem C_Thread3 1.0
10 29.002138 ST_ThreadState C_Thread0 S_T
10 29.002200 ST_ThreadState C_Thread1 S_E
52 29.002200 V_Sem C_Thread1 1.0
53 29.002276 V_Sem C_Thread1 1.0
10 31.002517 ST_ThreadState C_Thread3 S_T
10 31.002560 ST_ThreadState C_Thread4 S_E
52 31.002560 V_Sem C_Thread4 1.0
53 31.002602 V_Sem C_Thread4 1.0
10 32.002429 ST_ThreadState C_Thread2 S_H
10 33.002386 ST_ThreadState C_Thread0 S_H
10 33.002729 ST_ThreadState C_Thread4 S_T
10 33.002789 ST_ThreadState C_Thread3 S_H
10 33.002822 ST_ThreadState C_Thread3 S_E
52 33.002822 V_Sem C_Thread3 1.0
53 33.002847 V_Sem C_Thread3 1.0
10 35.002455 ST_ThreadState C_Thread1 S_T
10 35.002516 ST_ThreadState C_Thread0 S_E
52 35.002516 V_Sem C_Thread0 1.0
53 35.002590 V_Sem C_Thread0 1.0
10 36.003009 ST_ThreadState C_Thread3 S_T
10 36.003069 ST_ThreadState C_Thread2 S_E
52 36.003069 V_Sem C_Thread2 1.0
53 36.003139 V_Sem C_Thread2 1.0
10 38.002649 ST_ThreadState C_Thread1 S_H
10 38.002877 ST_ThreadState C_Thread4 S_H
10 42.002774 ST_ThreadState C_Thread0 S_T
10 42.002816 ST_ThreadState C_Thread4 S_E
52 42.002816 V_Sem C_Thread4 1.0
53 42.002860 V_Sem C_Thread4 1.0
10 42.003248 ST_ThreadState C_Thread2 S_T
10 42.003276 ST_ThreadState C_Thread1 S_E
52 42.003276 V_Sem C_Thread1 1.0
53 42.003341 V_Sem C_Thread1 1.0
10 44.002972 ST_ThreadState C_Thread4 S_T
10 46.003004 ST_ThreadState C_Thread0 S_H
10 46.003458 ST_ThreadState C_Thread2 S_H
10 48.003471 ST_ThreadState C_Thread1 S_T
10 48.003510 ST_ThreadState C_Thread0 S_E
52 48.003510 V_Sem C_Thread0 1.0
10 48.003523 ST_ThreadState C_Thread2 S_E
52 48.003523 V_Sem C_Thread2 1.0
53 48.003527 V_Sem C_Thread0 1.0
53 48.003555 V_Sem C_Thread2 1.0
10 49.003193 ST_ThreadState C_Thread4 S_H
10 51.003652 ST_ThreadState C_Thread1 S_H
10 54.003638 ST_ThreadState C_Thread2 S_T
10 55.003622 ST_ThreadState C_Thread0 S_T
10 55.003680 ST_ThreadState C_Thread4 S_E
52 55.003680 V_Sem C_Thread4 1.0
10 55.003709 ST_ThreadState C_Thread1 S_E
52 55.003709 V_Sem C_Thread1 1.0
53 55.003753 V_Sem C_Thread4 1.0
53 55.003779 V_Sem C_Thread1 1.0
10 57.003914 ST_ThreadState C_Thread4 S_T
10 58.003779 ST_ThreadState C_Thread2 S_H
10 59.003849 ST_ThreadState C_Thread0 S_H
10 61.003938 ST_ThreadState C_Thread1 S_T
10 61.004009 ST_ThreadState C_Thread0 S_E
52 61.004009 V_Sem C_Thread0 1.0
10 61.004040 ST_ThreadState C_Thread2 S_E
52 61.004040 V_Sem C_Thread2 1.0
53 61.005927 V_Sem C_Thread2 1.0
53 61.005968 V_Sem C_Thread0 1.0
10 67.006051 ST_ThreadState C_Thread2 S_T
10 68.006075 ST_ThreadState C_Thread0 S_T
8 68.006138 C_Thread0 CT_Thread
8 68.006148 C_Thread1 CT_Thread
8 68.006155 C_Thread2 CT_Thread
8 68.006161 C_Thread3 CT_Thread
8 68.006188 C_Thread4 CT_Thread
8 68.006196 C_Prog CT_Prog
